#DSID	Sample	Events (mc15)	Events (mc16a)	Events (mc16c)	Events (mc16d)	Events (mc16e)	Sample Lumi (mc15/16a only) [fb-1] Cross section [pb] FiltEff Total higher order xsec [pb] K-factor Higher order xsec sample [pb]
343362	mc15_13TeV.343362.PowhegPythiaEvtGen_P2012_ttbar_hdamp172p5_dil_highMjj.evgen.EVNT.e4661       11908800.0     0.0   0.0	   0.0	 0.0	 75501.37     696.23	   0.00019    Undefined	    1.195  0.157729584
343637	mc15_13TeV.343637.PowhegPythiaEvtGen_P2012_ttbar_hdamp172p5_threelepton.evgen.EVNT.e4948       9809240.0      0.0   0.0	   0.0	 0.0	 448.74	      696.23	   0.026281   Undefined	    1.1947 21.85948456
344171	mc15_13TeV.344171.PowhegPythiaEvtGen_P2012_ttbar_hdamp172p5_4lMFilt_40_8.evgen.EVNT.e5132      9841798.0      0.0   0.0	   0.0	 0.0	 112.25	      696.23	   0.10538    Undefined	    1.195  87.675617293
407200	mc15_13TeV.407200.MGPy8EG_A14N30NLO_ttbarNp012p_MET0to200_HT0to500.evgen.EVNT.e5146	       15725000.0     0.0   0.0	   0.0	 0.0	 38.96	      435.44	   0.49448    Undefined	    1.8743 403.56747454
407201	mc15_13TeV.407201.MGPy8EG_A14N30NLO_ttbarNp012p_MET0to200_HT500to700.evgen.EVNT.e5146	       2448000.0      0.0   0.0	   0.0	 0.0	 86.9	      436.63	   0.034424   Undefined	    1.8743 28.171761964
407202	mc15_13TeV.407202.MGPy8EG_A14N30NLO_ttbarNp012p_MET0to200_HT700to1000.evgen.EVNT.e5146	       4908000.0      0.0   0.0	   0.0	 0.0	 526.35	      436.48	   0.011398   Undefined	    1.8743 9.324640701
407203	mc15_13TeV.407203.MGPy8EG_A14N30NLO_ttbarNp012p_MET200p_HT0to1000.evgen.EVNT.e5146	       3904000.0      0.0   0.0	   0.0	 0.0	 510.44	      436.48	   0.009349   Undefined	    1.8743 7.648283334
407204	mc15_13TeV.407204.MGPy8EG_A14N30NLO_ttbarNp012p_HT1000p.evgen.EVNT.e5146		       489500.0	      0.0   0.0	   0.0	 0.0	 161.45	      436.58	   0.003705   Undefined	    1.8743 3.031898074
407322	mc15_13TeV.407322.PowhegPythiaEvtGen_P2012CT10_ttbarMET300_hdamp172p5_nonAH.evgen.EVNT.e5680   2955000.0      0.0   0.0	   0.0	 0.0	 2541.03      696.21	   0.001399   Undefined	    1.1943 1.162912967
407323	mc15_13TeV.407323.PowhegPythiaEvtGen_P2012CT10_ttbarMET400_hdamp172p5_nonAH.evgen.EVNT.e5680   1697500.0      0.0   0.0	   0.0	 0.0	 6489.31      696.23	   0.000315   Undefined	    1.1943 0.261583941
410000	mc15_13TeV.410000.PowhegPythiaEvtGen_P2012_ttbar_hdamp172p5_nonallhad.evgen.EVNT.e3698	       66735600.0     5230000.0	   0.0	 8000.0	 0.0	      11.55	   696.11     0.5442	    Undefined 1.195 452.69355909
410001	mc15_13TeV.410001.PowhegPythiaEvtGen_P2012radHi_ttbar_hdamp345_down_nonallhad.evgen.EVNT.e3783 39519000.0     0.0	   0.0	 0.0	 0.0	      87.31	   783.73     0.5442	    Undefined 1.0613 452.643791999
410002	mc15_13TeV.410002.PowhegPythiaEvtGen_P2012radLo_ttbar_hdamp172_up_nonallhad.evgen.EVNT.e3783   39752000.0     0.0	   0.0	 0.0	 0.0	      87.82	   611.1      0.5442	    Undefined 1.3611 452.643792
410003	mc15_13TeV.410003.aMcAtNloHerwigppEvtGen_ttbar_nonallhad.evgen.EVNT.e4441		       63091000.0     0.0	   0.0	 0.0	 0.0	      139.38	   694.59     0.5442	    Undefined 1.1975 452.643792001
410004	mc15_13TeV.410004.PowhegHerwigppEvtGen_UEEE5_ttbar_hdamp172p5_nonallhad.evgen.EVNT.e3836       38734000.0     0.0	   0.0	 0.0	 0.0	      85.57	   696.32     0.5442	    Undefined 1.1945 452.643792
410006	mc15_13TeV.410006.PowhegPythia8EvtGen_A14_ttbar_hdamp172p5_nonallhad.evgen.EVNT.e3836	       0.0	      0.0	   0.0	 0.0	 0.0	      0.0	   696.35     0.5442	    Undefined 1.1945 452.643791999
410007	mc15_13TeV.410007.PowhegPythiaEvtGen_P2012_ttbar_hdamp172p5_allhad.evgen.EVNT.e4135	       9989200.0      0.0	   0.0	 0.0	 0.0	      26.27	   696.21     0.457	    Undefined 1.195  380.21072415
410008	mc15_13TeV.410008.aMcAtNloHerwigppEvtGen_ttbar_allhad.evgen.EVNT.e3964			       9729000.0      0.0	   0.0	 0.0	 0.0	      25.59	   694.44     0.457	    Undefined 1.1977 380.11432
410009	mc15_13TeV.410009.PowhegPythiaEvtGen_P2012_ttbar_hdamp172p5_dil.evgen.EVNT.e4511	       39598300.0     0.0	   0.0	 0.0	 0.0	      451.89	   696.11     0.10534	    Undefined 1.195  87.627231743
410021	mc15_13TeV.410021.Sherpa_CT10_ttbar_DiLepton_MEPS_NLO.evgen.EVNT.e3959			       1994000.0      0.0	   0.0	 0.0	 0.0	      21.65	   78.73      1.0	    Undefined 1.17   92.1141
410022	mc15_13TeV.410022.Sherpa_CT10_ttbar_SingleLeptonP_MEPS_NLO.evgen.EVNT.e3959		       4937000.0      0.0	   0.0	 0.0	 0.0	      26.8	   157.47     1.0	    Undefined 1.17   184.2399
410023	mc15_13TeV.410023.Sherpa_CT10_ttbar_SingleLeptonM_MEPS_NLO.evgen.EVNT.e3959		       4946800.0      0.0	   0.0	 0.0	 0.0	      26.83	   157.57     1.0	    Undefined 1.17   184.3569
410024	mc15_13TeV.410024.Sherpa_CT10_ttbar_AllHadron_MEPS_NLO.evgen.EVNT.e3959			       9887600.0      0.0	   0.0	 0.0	 0.0	      26.73	   316.15     1.0	    Undefined 1.17   369.8955
410037	mc15_13TeV.410037.PowhegPythiaEvtGen_P2012_ttbar_hdamp170_nonallhad.evgen.EVNT.e4510	       15144600.0     0.0	   0.0	 0.0	 0.0	      37.34	   745.61     0.54392	    Undefined 1.0    405.5521912
410038	mc15_13TeV.410038.PowhegPythiaEvtGen_P2012_ttbar_hdamp171p5_nonallhad.evgen.EVNT.e4510	       7681600.0      0.0	   0.0	 0.0	 0.0	      19.74	   715.51     0.54383	    Undefined 1.0    389.1158033
410039	mc15_13TeV.410039.PowhegPythiaEvtGen_P2012_ttbar_hdamp173p5_nonallhad.evgen.EVNT.e4510	       7666400.0      0.0	   0.0	 0.0	 0.0	      20.8	   677.57     0.54384	    Undefined 1.0    368.4896688
410040	mc15_13TeV.410040.PowhegPythiaEvtGen_P2012_ttbar_hdamp175_nonallhad.evgen.EVNT.e4529	       7972600.0      0.0	   0.0	 0.0	 0.0	      22.53	   650.53     0.54388	    Undefined 1.0    353.8102564
410041	mc15_13TeV.410041.PowhegPythiaEvtGen_P2012_ttbar_hdamp177p5_nonallhad.evgen.EVNT.e4510	       7959000.0      0.0	   0.0	 0.0	 0.0	      24.05	   608.55     0.54382	    Undefined 1.0    330.941661
410042	mc15_13TeV.410042.PowhegPythiaEvtGen_P2012_ttbar_hdamp170_allhad.evgen.EVNT.e4510	       7969800.0      0.0	   0.0	 0.0	 0.0	      23.43	   745.57     0.4562	    Undefined 1.0    340.129034
410043	mc15_13TeV.410043.PowhegPythiaEvtGen_P2012_ttbar_hdamp171p5_allhad.evgen.EVNT.e4510	       7970600.0      0.0	   0.0	 0.0	 0.0	      24.42	   715.49     0.45625	    Undefined 1.0    326.4423125
410044	mc15_13TeV.410044.PowhegPythiaEvtGen_P2012_ttbar_hdamp173p5_allhad.evgen.EVNT.e4510	       7974000.0      0.0	   0.0	 0.0	 0.0	      25.8	   677.55     0.45622	    Undefined 1.0    309.111861
410045	mc15_13TeV.410045.PowhegPythiaEvtGen_P2012_ttbar_hdamp175_allhad.evgen.EVNT.e4510	       7975400.0      0.0	   0.0	 0.0	 0.0	      26.87	   650.62     0.45622	    Undefined 1.0    296.8258564
410046	mc15_13TeV.410046.PowhegPythiaEvtGen_P2012_ttbar_hdamp177p5_allhad.evgen.EVNT.e4510	       7982000.0      0.0	   0.0	 0.0	 0.0	      28.75	   608.53     0.4563	    Undefined 1.0    277.672239
410051	mc15_13TeV.410051.Sherpa_CT10_ttbb.evgen.EVNT.e4669					       1507500.0      0.0	   0.0	 0.0	 0.0	      4781.92	   0.31525    1.0	    Undefined 1.0    0.31525
410052	mc15_13TeV.410052.Sherpa_CT10_ttbb_CSSKIN.evgen.EVNT.e4790				       0.0	      0.0	   0.0	 0.0	 0.0	      0.0	   0.31652    1.0	    Undefined 1.0    0.31652
410053	mc15_13TeV.410053.Sherpa_CT10_ttbb_MSTW.evgen.EVNT.e4790				       0.0	      0.0	   0.0	 0.0	 0.0	      0.0	   0.35513    1.0	    Undefined 1.0    0.35513
410054	mc15_13TeV.410054.Sherpa_CT10_ttbb_NNPDF.evgen.EVNT.e4790				       0.0	      0.0	   0.0	 0.0	 0.0	      0.0	   0.3562     1.0	    Undefined 1.0    0.3562
410056	mc15_13TeV.410056.Sherpa_CT10_ttbb_X05.evgen.EVNT.e4790					       0.0	      0.0	   0.0	 0.0	 0.0	      0.0	   0.42914    1.0	    Undefined 1.0    0.42914
410057	mc15_13TeV.410057.Sherpa_CT10_ttbb_X2.evgen.EVNT.e4790					       0.0	      0.0	   0.0	 0.0	 0.0	      0.0	   0.23165    1.0	    Undefined 1.0    0.23165
410058	mc15_13TeV.410058.Sherpa_CT10_ttbb_glosoft.evgen.EVNT.e4790				       0.0	      0.0	   0.0	 0.0	 0.0	      0.0	   0.34185    1.0	    Undefined 1.0    0.34185
410120	mc15_13TeV.410120.PowhegPythiaEvtGen_P2012_ttbar_hdamp172p5_nonallhad_bfilter.evgen.EVNT.e4373 14780000.0     0.0	   0.0	 0.0	 0.0	      513.21	   696.23     0.034624	    Undefined 1.1947 28.79885824
410121	mc15_13TeV.410121.PowhegPythiaEvtGen_P2012_ttbar_hdamp172p5_dil_bfilter.evgen.EVNT.e4426       14787000.0     0.0	   0.0	 0.0	 0.0	      2753.41	   696.23     0.006457	    Undefined 1.1947 5.370424792
410159	mc15_13TeV.410159.aMcAtNloPythia8EvtGen_A14_NNPDF23_NNPDF30ME_ttbar_nonallhad.evgen.EVNT.e4683 29176000.0     0.0	   0.0	 0.0	 0.0	      64.47	   679.76     0.54413	    Undefined 1.2236 452.585568799
410160	mc15_13TeV.410160.aMcAtNloPythia8EvtGen_A14_NNPDF23_NNPDF30ME_ttbar_allhad.evgen.EVNT.e4683    29401000.0     0.0	   0.0	 0.0	 0.0	      77.5	   679.12     0.45609	    Undefined 1.2248 379.357418399
410175	mc15_13TeV.410175.MadGraphPythia8EvtGen_A14NNPDF23LO_ttbarMET200.evgen.EVNT.e5264	       0.0	      0.0	   0.0	 0.0	 0.0	      0.0	   512.26     0.008417	    Undefined 1.6239 7.002090064
410176	mc15_13TeV.410176.MadGraphPythia8EvtGen_A14NNPDF23LO_ttbarMET60_200.evgen.EVNT.e5264	       0.0	      0.0	   0.0	 0.0	 0.0	      0.0	   512.21     0.26062	    Undefined 1.6239 216.777935188
410186	mc15_13TeV.410186.Sherpa_NNPDF30NNLO_ttbar_AllHadronic_MEPS_NLO.evgen.EVNT.e4714	       19813000.0     0.0	   0.0	 0.0	 0.0	      52.23	   330.35     1.0	    Undefined 1.1484 379.37394
410187	mc15_13TeV.410187.Sherpa_NNPDF30NNLO_ttbar_SingleLeptonP_MEPS_NLO.evgen.EVNT.e4714	       9719000.0      0.0	   0.0	 0.0	 0.0	      53.24	   158.97     1.0	    Undefined 1.1484 182.561148
410188	mc15_13TeV.410188.Sherpa_NNPDF30NNLO_ttbar_SingleLeptonM_MEPS_NLO.evgen.EVNT.e4714	       9912000.0      0.0	   0.0	 0.0	 0.0	      54.35	   158.82     1.0	    Undefined 1.1484 182.388888
410189	mc15_13TeV.410189.Sherpa_NNPDF30NNLO_ttbar_dilepton_MEPS_NLO.evgen.EVNT.e4714		       3961000.0      0.0	   0.0	 0.0	 0.0	      45.25	   76.22      1.0	    Undefined 1.1484 87.531048
410225	mc15_13TeV.410225.aMcAtNloPythia8EvtGen_MEN30NLO_A14N23LO_ttbar_nonallhad.evgen.EVNT.e5465     58822900.0     0.0	   0.0	 0.0	 0.0	      129.21	   711.28     0.54735	    Undefined 1.1694 455.263836001
410232	mc15_13TeV.410232.PowhegHerwigppEvtGen_H7UE_tt_h172p5_nonallhad.evgen.EVNT.e5158	       38885000.0     0.0	   0.0	 0.0	 0.0	      85.95	   696.33     0.54393	    Undefined 1.1945 452.419216801
410233	mc15_13TeV.410233.aMcAtNloHerwigppEvtGen_H7UE_ttbar_nonallhad.evgen.EVNT.e5158		       0.0	      0.0	   0.0	 0.0	 0.0	      0.0	   694.01     0.54391	    Undefined 1.1985 452.402581601
410234	mc15_13TeV.410234.PowhegPythia8EvtGen_A14_ttbar_allhad_boosted.evgen.EVNT.e5230		       4902000.0      0.0	   0.0	 0.0	 0.0	      5.89	   248.87     1.0	    Undefined 3.3421 831.76
410249	mc15_13TeV.410249.Sherpa_221_NNPDF30NNLO_ttbar_AllHadronic_MEPS_NLO.evgen.EVNT.e5450	       9863000.0      9993000.0	   9990000.0	 9988000.0    0.0	   26.33      330.54	    1.0	      Undefined 1.1484 379.592136
410250	mc15_13TeV.410250.Sherpa_221_NNPDF30NNLO_ttbar_SingleLeptonP_MEPS_NLO.evgen.EVNT.e5450	       29680000.0     14987000.0   14979000.0	 14979000.0   0.0	   94.4	      158.76	    1.0	      Undefined	1.1484    182.32
410251	mc15_13TeV.410251.Sherpa_221_NNPDF30NNLO_ttbar_SingleLeptonM_MEPS_NLO.evgen.EVNT.e5450	       29632000.0     14991000.0   14986000.0	 14986000.0   0.0	   94.3	      158.97	    1.0	      Undefined	1.1484    182.56
410252	mc15_13TeV.410252.Sherpa_221_NNPDF30NNLO_ttbar_dilepton_MEPS_NLO.evgen.EVNT.e5450	       19780000.0     9995000.0	   9985000.0	 9983000.0    0.0	   114.1      76.277	    1.0	      Undefined	1.1484 87.5965068
410470	mc15_13TeV.410470.PhPy8EG_A14_ttbar_hdamp258p75_nonallhad.evgen.EVNT.e6337		       0.0	      119995000.0  74898000.0	 74986000.0   0.0	   265.3      729.77	    0.54379   Undefined	1.1398 452.302770399
410471	mc15_13TeV.410471.PhPy8EG_A14_ttbar_hdamp258p75_allhad.evgen.EVNT.e6337			       0.0	      39989000.0   24994000.0	 24714000.0   0.0	   105.37     729.78	    0.45628   Undefined	1.1397 379.515452801
410472	mc15_13TeV.410472.PhPy8EG_A14_ttbar_hdamp258p75_dil.evgen.EVNT.e6348			       0.0	      59969000.0   24959000.0	 24961000.0   0.0	   683.66     729.77	    0.10545   Undefined	1.1398 87.709092
410500	mc15_13TeV.410500.PowhegPythia8EvtGen_A14_ttbar_hdamp172p5_nonallhad.evgen.EVNT.e4797	       9832000.0      0.0	   0.0		 0.0	      0.0	   21.73      730.28	    0.54401   Undefined	1.139  452.4857576
410501	mc15_13TeV.410501.PowhegPythia8EvtGen_A14_ttbar_hdamp258p75_nonallhad.evgen.EVNT.e5458	       118443000.0    60993000.0   24997000.0	 0.0	      0.0	   134.84     730.17	    0.54383   Undefined	1.1391 452.336040799
410502	mc15_13TeV.410502.PowhegPythia8EvtGen_A14_ttbar_hdamp258p75_allhad.evgen.EVNT.e5475	       19760000.0     0.0	   0.0		 0.0	      0.0	   69.31      249.81	    1.0	      Undefined	1.1412 285.0856701
410503	mc15_13TeV.410503.PowhegPythia8EvtGen_A14_ttbar_hdamp258p75_dil.evgen.EVNT.e5475	       39424000.0     19999000.0   19995000.0	 19983000.0   0.0	   228.23     76.932	    1.0	      Undefined	1.139  87.625548
410504	mc15_13TeV.410504.PowhegPythia8EvtGen_A14_ttbar_hdamp258p75_nonallhad_bfil.evgen.EVNT.e5458    19672000.0     0.0	   0.0		 0.0	      0.0	   763.04     730.16	    0.031     Undefined	1.139  25.78121944
410505	mc15_13TeV.410505.PowhegPythia8EvtGen_A14_ttbar_hdamp258p75_dil_bfil.evgen.EVNT.e5475	       19723000.0     0.0	   0.0		 0.0	      0.0	   4019.28    76.933	    0.056     Undefined	1.139  4.907094472
410506	mc15_13TeV.410506.PowhegPythia8EvtGen_A14_ttbar_hdamp258p75_allhad_boosted.evgen.EVNT.e5634    9804000.0      0.0	   0.0		 0.0	      0.0	   34.39      249.89	    1.0	      Undefined	1.141  285.11624363
410507	mc15_13TeV.410507.PowhegPy8EvtGen_A14_ttbar_hdamp258p75_nonallhad_bfil_boosted.evgen.EVNT.e5826		      13820600.0   0.0		 0.0	      0.0	   0.0	      10683.53	    730.17    0.001555	Undefined 1.1391 1.293636328
410508	mc15_13TeV.410508.PowhegPy8EvtGen_A14_ttbar_hdamp258p75_nonallhad_cfil_boosted.evgen.EVNT.e5826		      5896800.0	   0.0		 0.0	      0.0	   0.0	      2198.85	    730.17    0.003224	Undefined 1.1391 2.681760592
410509	mc15_13TeV.410509.PowhegPythia8EvtGen_A14_ttbar_hdamp258p75_allhad_bfil.evgen.EVNT.e5636		      2996000.0	   0.0		 0.0	      0.0	   0.0	      172.28	    249.8     0.061	Undefined 1.1412 17.390108774
410511	mc15_13TeV.410511.PowhegPythia8EvtGen_A14v3cUp_ttbar_hdamp517p5_nonallhad.evgen.EVNT.e5556		      59446650.0   0.0		 0.0	      0.0	   0.0	      131.42	    824.51    0.54383	Undefined 1.0088 452.336040801
410512	mc15_13TeV.410512.PowhegPythia8EvtGen_A14v3cDo_ttbar_hdamp258p75_nonallhad.evgen.EVNT.e5556		      59691500.0   0.0		 0.0	      0.0	   0.0	      131.95	    640.4     0.54388	Undefined 1.2988 452.377628799
410515	mc15_13TeV.410515.PowhegPythia8EvtGen_A14v3cUp_ttbar_hdamp517p5_dil.evgen.EVNT.e5936			      4949000.0	   0.0		 0.0	      0.0	   0.0	      56.47	    86.873    1.0	Undefined 1.0089 87.64269478
410516	mc15_13TeV.410516.PowhegPythia8EvtGen_A14v3cDo_ttbar_hdamp258p75_dil.evgen.EVNT.e5936			      4954000.0	   0.0		 0.0	      0.0	   0.0	      56.52	    67.474    1.0	Undefined 1.2989 87.64265334
410521	mc15_13TeV.410521.PowhegPythia8EvtGen_A14v3cUp_tt_h517p5_had_boosted.evgen.EVNT.e5634			      9786000.0	   0.0		 0.0	      0.0	   0.0	      34.32	    281.98    1.0	Undefined 1.0111 285.10180058
410522	mc15_13TeV.410522.PowhegPythia8EvtGen_A14v3cDo_tt_h258p75_had_boosted.evgen.EVNT.e5634			      9788000.0	   0.0		 0.0	      0.0	   0.0	      34.33	    219.1     1.0	Undefined 1.3013 285.1132963
410525	mc15_13TeV.410525.PowhegHerwig7EvtGen_H7UE_tt_hdamp258p75_nonallhad.evgen.EVNT.e5903			      29288000.0   0.0		 0.0	      0.0	   0.0	      64.75	    730.15    0.54384	Undefined 1.1392 452.344358401
410527	mc15_13TeV.410527.PowhegHerwig7EvtGen_H7UE_tt_hdamp258p75_dilep.evgen.EVNT.e5903			      9769000.0	   0.0		 0.0	      0.0	   0.0	      111.49	    76.929    1.0	Undefined 1.139	 87.622131
410528	mc15_13TeV.410528.PowhegHerwig7EvtGen_H7UE_tt_hdamp258p75_nonallhad_bfil.evgen.EVNT.e5903		      9723000.0	   0.0		 0.0	      0.0	   0.0	      307.67	    730.14    0.038	Undefined 1.139	 31.60191948
410529	mc15_13TeV.410529.PowhegHerwig7EvtGen_H7UE_tt_hdamp258p75_dilep_bfil.evgen.EVNT.e5608			      9780000.0	   0.0		 0.0	      0.0	   0.0	      1594.49	    76.93     0.07	Undefined 1.139	 6.1336289
410530	mc15_13TeV.410530.PowhegHerwig7EvtGen_H7UE_tt_hdamp258p75_allhad_boosted.evgen.EVNT.e5903		      9638000.0	   0.0		 0.0	      0.0	   0.0	      25.37	    333.18    1.0	Undefined 1.1404 379.9451448
410531	mc15_13TeV.410531.PowhegPythia8EvtGen_A14_ttbar_hdamp258p75_allhad_NoC.evgen.EVNT.e5884			      2934000.0	   0.0		 0.0	      0.0	   0.0	      30.87	    83.27     1.0	Undefined 1.1412 95.0285567
410532	mc15_13TeV.410532.PowhegPythia8EvtGen_A14_ttbar_hdamp258p75_allhad_NoC_boosted.evgen.EVNT.e5884		      2935000.0	   0.0		 0.0	      0.0	   0.0	      30.9	    83.261    1.0	Undefined 1.141	 94.998053387
410533	mc15_13TeV.410533.PowhegPythia8EvtGen_A14_ttbar_hdamp258p75_allhad_NoC_bfil.evgen.EVNT.e5884		      952000.0	   0.0		 0.0	      0.0	   0.0	      10.02	    83.269    1.0	Undefined 1.1412 95.030579712
410534	mc15_13TeV.410534.PowhegPythia8EvtGen_A14v3cUp_tt_h517p5_allhad_NoC_boosted.evgen.EVNT.e5884		      2935000.0	   0.0		 0.0	      0.0	   0.0	      30.89	    93.972    1.0	Undefined 1.0111 95.012364012
410535	mc15_13TeV.410535.PowhegPythia8EvtGen_A14v3cDo_tt_h258p75_allhad_NoC_boosted.evgen.EVNT.e5884		      2967000.0	   0.0		 0.0	      0.0	   0.0	      31.23	    73.005    1.0	Undefined 1.3013 95.000895465
410536	mc15_13TeV.410536.PowhegHerwig7EvtGen_H7UE_tt_hdamp258p75_allhad_NoC.evgen.EVNT.e5885			      2886000.0	   0.0		 0.0	      0.0	   0.0	      30.37	    83.268    1.0	Undefined 1.1412 95.026857156
410537	mc15_13TeV.410537.PowhegHerwig7EvtGen_H7UE_tt_hdamp258p75_allhad_NoC_boosted.evgen.EVNT.e5885		      2902000.0	   0.0		 0.0	      0.0	   0.0	      30.55	    83.251    1.0	Undefined 1.141	 94.992388036
410558  mc16_13TeV.410558.PowhegHerwig7EvtGen_H7UE_tt_hdamp258p75_704_dil.deriv.DAOD_FTAG4.e6366                      7324651.0    0.0           0.0          0.0          0.0        0.0           730.160   0.10543   Undefined 1.1398 87.74268027824
410557  mc16_13TeV.410557.PowhegHerwig7EvtGen_H7UE_tt_hdamp258p75_704_SingleLep.deriv.DAOD_FTAG4.e6366                10063739.0   0.0           0.0          0.0          0.0        0.0           730.160   0.43853   Undefined 1.1398 364.960614459
410480  mc16_13TeV.410480.PhPy8EG_A14_ttbar_hdamp517p5_SingleLep.deriv.DAOD_FTAG4.e6454                               30503930.0   0.0           0.0          0.0          0.0        0.0           729.740   0.43849   Undefined 1.1398 364.71741282548
410482  mc16_13TeV.410482.PhPy8EG_A14_ttbar_hdamp517p5_dil.deriv.DAOD_FTAG4.e6454                               14804599.0   0.0           0.0          0.0          0.0        0.0           729.740   0.10546   Undefined 1.1398 87.71716197992
410464  mc16_13TeV.410464.aMcAtNloPy8EvtGen_MEN30NLO_A14N23LO_ttbar_noShWe_SingleLep.recon.AOD.e6762	               60000000    0.0           0.0         0.0          0.0         0.0           711.440   0.44034   Undefined 1.0  364.71741282548
410465 mc16_13TeV.410465.aMcAtNloPy8EvtGen_MEN30NLO_A14N23LO_ttbar_noShWe_dil.merge.AOD.e6762			       19997000    0.0           0.0         0.0          0.0         0.0           712.040   0.10718   Undefined 1.0  87.71716197992
